^C:\USERS\EXIA\DROPBOX\PROJET\PROJET C#\SOLUTION\PROJET CSHARP\COUCHE CLIENT\FORM_AFFICHERCLIENT.RESX
^C:\USERS\EXIA\DROPBOX\PROJET\PROJET C#\SOLUTION\PROJET CSHARP\COUCHE CLIENT\FORM_AFFICHERTOUTCLIENT.RESX
^C:\USERS\EXIA\DROPBOX\PROJET\PROJET C#\SOLUTION\PROJET CSHARP\COUCHE CLIENT\FORM_AFFICHERTOUTEFFECTIF.RESX
^C:\USERS\EXIA\DROPBOX\PROJET\PROJET C#\SOLUTION\PROJET CSHARP\COUCHE CLIENT\FORM_AFFICHERUNEFFECTIF+MODIF.RESX
^C:\USERS\EXIA\DROPBOX\PROJET\PROJET C#\SOLUTION\PROJET CSHARP\COUCHE CLIENT\FORM_AJOUTEREFFECTIF.RESX
^C:\USERS\EXIA\DROPBOX\PROJET\PROJET C#\SOLUTION\PROJET CSHARP\COUCHE CLIENT\FORM_CLIENTGENERAL.RESX
^C:\USERS\EXIA\DROPBOX\PROJET\PROJET C#\SOLUTION\PROJET CSHARP\COUCHE CLIENT\FORM_EFFECTIFGENERAL.RESX
^C:\USERS\EXIA\DROPBOX\PROJET\PROJET C#\SOLUTION\PROJET CSHARP\COUCHE CLIENT\FORM_RESERVATION.RESX
^C:\USERS\EXIA\DROPBOX\PROJET\PROJET C#\SOLUTION\PROJET CSHARP\PROPERTIES\RESOURCES.RESX
^C:\USERS\EXIA\DROPBOX\PROJET\PROJET C#\SOLUTION\PROJET CSHARP\COUCHE CLIENT\FORM_AFFICHEREQUIPEMENT.RESX
^C:\USERS\EXIA\DROPBOX\PROJET\PROJET C#\SOLUTION\PROJET CSHARP\COUCHE CLIENT\FORM_AFFICHERRESERVATIONS.RESX
^C:\USERS\EXIA\DROPBOX\PROJET\PROJET C#\SOLUTION\PROJET CSHARP\COUCHE CLIENT\FORM_AJOUTSUPPRMODIFEQUIPEMENT.RESX
^C:\USERS\EXIA\DROPBOX\PROJET\PROJET C#\SOLUTION\PROJET CSHARP\COUCHE CLIENT\FORM_SUPRESSIONACTIVITé.RESX
^C:\USERS\EXIA\DROPBOX\PROJET\PROJET C#\SOLUTION\PROJET CSHARP\COUCHE CLIENT\FORM_AFFICHERTOUTEQUIPEMENT.RESX
^C:\USERS\EXIA\DROPBOX\PROJET\PROJET C#\SOLUTION\PROJET CSHARP\COUCHE CLIENT\FORM_AJOUTERCLIENT.RESX
^C:\USERS\EXIA\DROPBOX\PROJET\PROJET C#\SOLUTION\PROJET CSHARP\COUCHE CLIENT\FORM_MENUPRINCIAPL.RESX
